[
  {
    "name": "minecraft:coal_ore",
    "weight": 8,
    "dimensions": [
      "minecraft:overworld"
    ],
    "biomes": []
  },
  {
    "name": "minecraft:iron_ore",
    "weight": 3,
    "dimensions": [
      "minecraft:overworld"
    ],
    "biomes": []
  },
  {
    "name": "minecraft:gold_ore",
    "weight": 2,
    "dimensions": [
      "minecraft:overworld"
    ],
    "biomes": []
  },
  {
    "name": "minecraft:diamond_ore",
    "weight": 2,
    "dimensions": [
      "minecraft:overworld"
    ],
    "biomes": []
  },
  {
    "name": "minecraft:lapis_ore",
    "weight": 2,
    "dimensions": [
      "minecraft:overworld"
    ],
    "biomes": []
  },
  {
    "name": "minecraft:redstone_ore",
    "weight": 4,
    "dimensions": [
      "minecraft:overworld"
    ],
    "biomes": []
  },
  {
    "name": "minecraft:emerald_ore",
    "weight": 2,
    "dimensions": [
      "minecraft:overworld"
    ],
    "biomes": []
  },
  {
    "name": "minecraft:nether_quartz_ore",
    "weight": 3,
    "dimensions": [
      "minecraft:overworld"
    ],
    "biomes": []
  },
  {
    "name": "minecraft:ancient_debris",
    "weight": 1,
    "dimensions": [
      "minecraft:overworld"
    ],
    "biomes": []
  },
  {
    "name": "minecraft:gilded_blackstone",
    "weight": 2,
    "dimensions": [
      "minecraft:overworld"
    ],
    "biomes": []
  },
  {
    "name": "appliedenergistics2:quartz_ore",
    "weight": 3,
    "dimensions": [
      "minecraft:overworld"
    ],
    "biomes": []
  },
  {
    "name": "appliedenergistics2:charged_quartz_ore",
    "weight": 2,
    "dimensions": [
      "minecraft:overworld"
    ],
    "biomes": []
  },
  {
    "name": "create:copper_ore",
    "weight": 3,
    "dimensions": [
      "minecraft:overworld"
    ],
    "biomes": []
  },
  {
    "name": "create:zinc_ore",
    "weight": 2,
    "dimensions": [
      "minecraft:overworld"
    ],
    "biomes": []
  },
  {
    "name": "draconicevolution:end_draconium_ore",
    "weight": 1,
    "dimensions": [
      "minecraft:overworld"
    ],
    "biomes": []
  },
  {
    "name": "draconicevolution:nether_draconium_ore",
    "weight": 1,
    "dimensions": [
      "minecraft:overworld"
    ],
    "biomes": []
  },
  {
    "name": "draconicevolution:overworld_draconium_ore",
    "weight": 1,
    "dimensions": [
      "minecraft:overworld"
    ],
    "biomes": []
  },
  {
    "name": "bigreactors:yellorite_ore",
    "weight": 4,
    "dimensions": [
      "minecraft:overworld"
    ],
    "biomes": []
  },
  {
    "name": "miniutilities:ender_ore",
    "weight": 3,
    "dimensions": [
      "minecraft:overworld"
    ],
    "biomes": []
  },
  {
    "name": "mysticalagriculture:prosperity_ore",
    "weight": 2,
    "dimensions": [
      "minecraft:overworld"
    ],
    "biomes": []
  },
  {
    "name": "mysticalagriculture:inferium_ore",
    "weight": 2,
    "dimensions": [
      "minecraft:overworld"
    ],
    "biomes": []
  },
  {
    "name": "mysticalagriculture:soulium_ore",
    "weight": 2,
    "dimensions": [
      "minecraft:overworld"
    ],
    "biomes": []
  },
  {
    "name": "quark:biotite_ore",
    "weight": 3,
    "dimensions": [
      "minecraft:overworld"
    ],
    "biomes": []
  },
  {
    "name": "thermal:apatite_ore",
    "weight": 6,
    "dimensions": [
      "minecraft:overworld"
    ],
    "biomes": []
  },
  {
    "name": "thermal:cinnabar_ore",
    "weight": 2,
    "dimensions": [
      "minecraft:overworld"
    ],
    "biomes": []
  },
  {
    "name": "thermal:niter_ore",
    "weight": 2,
    "dimensions": [
      "minecraft:overworld"
    ],
    "biomes": []
  },
  {
    "name": "thermal:sulfur_ore",
    "weight": 2,
    "dimensions": [
      "minecraft:overworld"
    ],
    "biomes": []
  },
  {
    "name": "thermal:copper_ore",
    "weight": 3,
    "dimensions": [
      "minecraft:overworld"
    ],
    "biomes": []
  },
  {
    "name": "thermal:tin_ore",
    "weight": 3,
    "dimensions": [
      "minecraft:overworld"
    ],
    "biomes": []
  },
  {
    "name": "thermal:lead_ore",
    "weight": 3,
    "dimensions": [
      "minecraft:overworld"
    ],
    "biomes": []
  },
  {
    "name": "thermal:silver_ore",
    "weight": 2,
    "dimensions": [
      "minecraft:overworld"
    ],
    "biomes": []
  },
  {
    "name": "thermal:nickel_ore",
    "weight": 2,
    "dimensions": [
      "minecraft:overworld"
    ],
    "biomes": []
  },
  {
    "name": "tconstruct:cobalt_ore",
    "weight": 2,
    "dimensions": [
      "minecraft:overworld"
    ],
    "biomes": []
  },
  {
    "name": "tconstruct:copper_ore",
    "weight": 3,
    "dimensions": [
      "minecraft:overworld"
    ],
    "biomes": []
  }
]